Surveillance Endorsement in Multiple Cases
…
    c(SOA_1:SOA_10,Endorsement_1:Endorsement_10),  # variables that are repeated measures
    # Convert 20 columns to 3: 1 columns each for SOA/Endorsement (.value), and
    # one column for case
    names_to = c(".value", "Case"),
    # Extract the names "SOA"/"Endorsement" from the names of the variables for the
    # value columns, and then the number to the "Case" column
    names_pattern = "(SOA|Endorsement)_(.*)",
    # Convert the "Case" column to integers- NOTE that the .* indicated to just use everything after the _
    #this works in this case because the only thing after the _ are the numbers 1-10, but wont always work
    names_transform = list(Case = as.integer)
  )
surveillancedt_long %>% 
  select(ResponseId, SOA, Endorsement, Case, everything())

## # A tibble: 2,660 x 40
##    ResponseId      SOA Endorsement  Case StartDate   EndDate   Status IPAddress 
##    <chr>         <int>       <int> <int> <chr>       <chr>      <int> <chr>     
##  1 R_1hQIEbHWrd     4           2     1 9/14/21 13 9/14/21       0 207.151.5
##  2 R_1hQIEbHWrd     6           3     2 9/14/21 13 9/14/21       0 207.151.5
##  3 R_1hQIEbHWrd     2           1     3 9/14/21 13 9/14/21       0 207.151.5
##  4 R_1hQIEbHWrd     2           1     4 9/14/21 13 9/14/21       0 207.151.5
##  5 R_1hQIEbHWrd     2           1     5 9/14/21 13 9/14/21       0 207.151.5
##  6 R_1hQIEbHWrd     1           1     6 9/14/21 13 9/14/21       0 207.151.5
##  7 R_1hQIEbHWrd     5           2     7 9/14/21 13 9/14/21       0 207.151.5
##  8 R_1hQIEbHWrd     2           1     8 9/14/21 13 9/14/21       0 207.151.5
##  9 R_1hQIEbHWrd     5           1     9 9/14/21 13 9/14/21       0 207.151.5
## 10 R_1hQIEbHWrd     5           1    10 9/14/21 13 9/14/21       0 207.151.5
## #  with 2,650 more rows, and 32 more variables: Progress <int>,
## #   Duration..in.seconds. <int>, Finished <int>, RecordedDate <chr>,
## #   RecipientLastName <lgl>, RecipientFirstName <lgl>, RecipientEmail <lgl>,
## #   ExternalReference <lgl>, LocationLatitude <dbl>, LocationLongitude <dbl>,
## #   DistributionChannel <chr>, UserLanguage <chr>, Consent <int>,
## #   PassCheck <int>, Privacy_1 <int>, Privacy_2 <int>, Privacy_3 <int>,
## #   Privacy_4 <int>, Gender <int>, Gender_other <chr>, Age <int>,
## #   Education <int>, Race <int>, Employment <int>, Employment_other <chr>,
## #   Ladder <int>, Poli_affil <int>, Poli_party <int>, Poli_other <chr>,
…
